# -*- mode: python -*-

JLA_lcdm.data_directory = os.path.join(data.path['data'], 'JLA')
JLA_lcdm.settings       = 'jla.dataset'

JLA_lcdm.use_nuisance = ['Omega_m', 'Omega_k', 'alpha', 'beta', 'M', 'Delta_M']

# Absolute magnitude degenerate with h. Here we assume h=0.7. The
# particular value only affects constraints on the nuisance parameter
# M, and it is irrilevant for the physical constraints.
JLA_lcdm.M0 = 43.1586

# Set to true to compute the distance modulus according to a mock LCDM
# cosmology, instead of the data
JLA_lcdm.use_mock = False
