# Union2 supernovae
union21_lcdm.data_directory       = data.path['data']
union21_lcdm.z_mu_dmu             = 'sn_z_mu_dmu_union2.txt'
union21_lcdm.covmat_sys           = 'sn_covmat_sys_union2.txt'
union21_lcdm.covmat_nosys         = 'sn_covmat_nosys_union2.txt'

union21_lcdm.has_marginalization  = True
union21_lcdm.has_syscovmat        = True

union21_lcdm.use_nuisance = ['Omega_m','Omega_k']